<?xml version="1.0" encoding="UTF-8" standalone="no"?>
<!DOCTYPE svg PUBLIC "-//W3C//DTD SVG 1.1//EN" "http://www.w3.org/Graphics/SVG/1.1/DTD/svg11.dtd">
<!-- Generated by graphviz version 2.40.1 (20161225.0304)
 -->
<!-- Title: G Pages: 1 -->
<svg width="597pt" height="650pt" viewBox="0.00 0.00 597.23 650.13" xmlns="http://www.w3.org/2000/svg" xmlns:xlink="http://www.w3.org/1999/xlink">
<g id="graph0" class="graph" transform="scale(1 1) rotate(0) translate(4 646.1297)">
<title>G</title>
<polygon fill="#ffffff" stroke="transparent" points="-4,4 -4,-646.1297 593.2336,-646.1297 593.2336,4 -4,4"/>
<!-- 0 -->
<g id="node1" class="node">
<title>0</title>
<ellipse fill="none" stroke="#000000" cx="27" cy="-217.0218" rx="27" ry="18"/>
<text text-anchor="middle" x="27" y="-212.8218" font-family="Times,serif" font-size="14.00" fill="#000000">0</text>
</g>
<!-- 2 -->
<g id="node2" class="node">
<title>2</title>
<ellipse fill="none" stroke="#000000" cx="562.2336" cy="-389.9076" rx="27" ry="18"/>
<text text-anchor="middle" x="562.2336" y="-385.7076" font-family="Times,serif" font-size="14.00" fill="#000000">2</text>
</g>
<!-- 0&#45;&#45;2 -->
<g id="edge1" class="edge">
<title>0--2</title>
<path fill="none" stroke="#000000" d="M51.3887,-224.8996C140.5535,-253.7007 448.3031,-353.1069 537.7017,-381.9835"/>
</g>
<!-- 3 -->
<g id="node3" class="node">
<title>3</title>
<ellipse fill="none" stroke="#000000" cx="323.1679" cy="-18" rx="27" ry="18"/>
<text text-anchor="middle" x="323.1679" y="-13.8" font-family="Times,serif" font-size="14.00" fill="#000000">3</text>
</g>
<!-- 0&#45;&#45;3 -->
<g id="edge2" class="edge">
<title>0--3</title>
<path fill="none" stroke="#00ff00" d="M46.4324,-203.9634C100.2249,-167.8154 250.6339,-66.7421 304.049,-30.8477"/>
</g>
<!-- 4 -->
<g id="node4" class="node">
<title>4</title>
<ellipse fill="none" stroke="#000000" cx="398.806" cy="-624.1297" rx="27" ry="18"/>
<text text-anchor="middle" x="398.806" y="-619.9297" font-family="Times,serif" font-size="14.00" fill="#000000">4</text>
</g>
<!-- 0&#45;&#45;4 -->
<g id="edge3" class="edge">
<title>0--4</title>
<path fill="none" stroke="#000000" d="M41.1212,-232.4838C100.0161,-296.9706 325.7492,-544.1364 384.6707,-608.6523"/>
</g>
<!-- 1 -->
<g id="node5" class="node">
<title>1</title>
<ellipse fill="none" stroke="#000000" cx="512.7583" cy="-442.6124" rx="27" ry="18"/>
<text text-anchor="middle" x="512.7583" y="-438.4124" font-family="Times,serif" font-size="14.00" fill="#000000">1</text>
</g>
<!-- 0&#45;&#45;1 -->
<g id="edge4" class="edge">
<title>0--1</title>
<path fill="none" stroke="#000000" d="M49.4549,-227.45C130.808,-265.2311 409.5751,-394.6931 490.5416,-432.2947"/>
</g>
<!-- 2&#45;&#45;3 -->
<g id="edge7" class="edge">
<title>2--3</title>
<path fill="none" stroke="#00ff00" d="M551.3402,-372.9611C511.4228,-310.8627 373.4247,-96.183 333.8521,-34.621"/>
</g>
<!-- 3&#45;&#45;4 -->
<g id="edge8" class="edge">
<title>3--4</title>
<path fill="none" stroke="#000000" d="M325.4316,-36.1403C336.5666,-125.3711 385.4361,-516.9893 396.5511,-606.0602"/>
</g>
<!-- 1&#45;&#45;2 -->
<g id="edge5" class="edge">
<title>1--2</title>
<path fill="none" stroke="#00ff00" d="M527.3349,-427.0842C533.7198,-420.2826 541.1977,-412.3165 547.5902,-405.5068"/>
</g>
<!-- 1&#45;&#45;4 -->
<g id="edge6" class="edge">
<title>1--4</title>
<path fill="none" stroke="#00ff00" d="M502.2422,-459.3637C480.5338,-493.9435 430.9833,-572.8737 409.2967,-607.4188"/>
</g>
</g>
</svg>